[
  {
    "id": "1",
    "estimationReferenceNo": "1231231",
    "customerId": "",
    "refrenceNo": "123456",
    "customerName": "Mohamed",
    "customerMobile": "01016152202",
    "area": "Hawali"
  },
  {
    "id": "2",
    "estimationReferenceNo": "222222",
    "customerId": "2",
    "refrenceNo": "123456",
    "customerName": "Mohamed",
    "customerMobile": "01016152202",
    "area": "Hawali"
  }
]
