[
  {
    "createdBy": "Farag :b",
    "createdDate": "2017-12-19T06:00:00",
    "progressStatus": {
      "id": 1,
      "name": "progress 1"
    },
    "note": "Farag is a good dev"
  },
  {
    "createdBy": "Farag :b",
    "createdDate": "2017-12-19T06:00:00",
    "progressStatus": {
      "id": 1,
      "name": "progress 1"
    },
    "note": "Farag is a good dev"
  },
  {
    "createdBy": "Farag :b",
    "createdDate": "2017-12-19T06:00:00",
    "progressStatus": {
      "id": 1,
      "name": "progress 1"
    },
    "note": "Farag is a good dev"
  }
]
